Tomato | fsefefef | 456485456 | 50
Tomato | drererrd | 145644554 | 50
Carrot | dfererer | 894545445 | 48
Tomato | fddfdref | 879778998 | 65
Carrot | fsefefef | 132135515 | 69
Tomato | dffegsfse | 848441511 | 54
Potato | fsefefef | 448445445 | 24
Apple | feererer| 548484484 | 36
Potato | drferer | 878155544 | 52
